data/img/WIN_20180601_10_19_46_Pro.jpg
data/img/WIN_20180601_10_19_50_Pro.jpg
data/img/WIN_20180601_10_19_54_Pro.jpg
data/img/WIN_20180601_10_19_58_Pro.jpg
data/img/WIN_20180601_10_20_02_Pro.jpg
data/img/WIN_20180601_10_20_04_Pro.jpg
data/img/WIN_20180601_10_20_07_Pro.jpg
data/img/WIN_20180601_10_20_09_Pro.jpg
data/img/WIN_20180601_10_20_13_Pro.jpg
data/img/WIN_20180601_10_20_15_Pro.jpg
data/img/WIN_20180601_10_20_18_Pro.jpg
data/img/WIN_20180601_10_20_21_Pro.jpg
data/img/WIN_20180601_10_20_23_Pro.jpg
data/img/WIN_20180601_10_20_26_Pro.jpg
data/img/WIN_20180601_10_20_28_Pro.jpg
data/img/WIN_20180601_10_20_30_Pro.jpg
data/img/WIN_20180601_10_20_32_Pro.jpg
data/img/WIN_20180601_10_20_36_Pro.jpg
data/img/WIN_20180601_10_20_38_Pro.jpg
data/img/WIN_20180601_10_20_40_Pro.jpg
data/img/WIN_20180601_10_20_42_Pro.jpg
data/img/WIN_20180601_10_20_44_Pro.jpg
data/img/WIN_20180601_10_20_46_Pro.jpg
data/img/WIN_20180601_10_20_47_Pro.jpg
data/img/WIN_20180601_10_20_49_Pro.jpg
data/img/WIN_20180601_10_20_51_Pro.jpg
data/img/WIN_20180601_15_36_15_Pro.jpg
data/img/WIN_20180601_15_36_16_Pro.jpg
data/img/WIN_20180601_15_36_17_Pro.jpg
data/img/WIN_20180601_15_36_18_Pro.jpg
data/img/WIN_20180601_15_36_19_Pro.jpg
data/img/WIN_20180601_15_36_20_Pro (2).jpg
data/img/WIN_20180601_15_36_20_Pro.jpg
data/img/WIN_20180601_15_36_21_Pro.jpg
data/img/WIN_20180601_15_36_23_Pro.jpg
data/img/WIN_20180601_15_36_24_Pro.jpg
data/img/WIN_20180601_15_36_25_Pro.jpg
data/img/WIN_20180601_15_36_26_Pro.jpg
data/img/WIN_20180601_15_36_27_Pro.jpg
data/img/WIN_20180601_15_36_28_Pro.jpg
data/img/WIN_20180601_15_36_29_Pro.jpg
data/img/WIN_20180601_15_36_30_Pro.jpg
data/img/WIN_20180601_15_36_31_Pro.jpg
data/img/WIN_20180601_15_36_32_Pro.jpg
data/img/WIN_20180601_15_36_33_Pro.jpg
data/img/WIN_20180601_15_36_34_Pro.jpg
data/img/WIN_20180601_15_36_35_Pro.jpg
data/img/WIN_20180601_15_36_36_Pro.jpg
data/img/WIN_20180601_15_36_37_Pro.jpg
data/img/WIN_20180601_15_36_39_Pro.jpg
data/img/WIN_20180601_15_36_40_Pro.jpg
data/img/WIN_20180601_15_36_41_Pro.jpg
data/img/WIN_20180601_15_36_42_Pro.jpg
data/img/WIN_20180601_15_36_43_Pro.jpg
data/img/WIN_20180601_15_36_44_Pro.jpg
data/img/WIN_20180601_15_36_45_Pro.jpg
data/img/WIN_20180601_15_36_46_Pro.jpg
data/img/WIN_20180601_15_36_47_Pro.jpg
data/img/WIN_20180601_15_36_48_Pro.jpg
data/img/WIN_20180601_15_36_49_Pro.jpg
data/img/WIN_20180601_15_36_50_Pro.jpg
data/img/WIN_20180601_15_36_51_Pro.jpg
data/img/WIN_20180601_15_36_52_Pro.jpg
data/img/WIN_20180601_15_36_53_Pro (2).jpg
data/img/WIN_20180601_15_36_53_Pro.jpg
data/img/WIN_20180601_15_36_54_Pro.jpg
data/img/WIN_20180601_15_36_55_Pro.jpg
data/img/WIN_20180601_15_36_56_Pro.jpg
data/img/WIN_20180601_15_36_57_Pro.jpg
data/img/WIN_20180601_15_36_58_Pro.jpg
data/img/WIN_20180601_15_36_59_Pro.jpg
data/img/WIN_20180601_15_37_01_Pro.jpg
data/img/WIN_20180601_15_37_02_Pro (2).jpg
data/img/WIN_20180601_15_37_02_Pro.jpg
data/img/WIN_20180601_15_37_03_Pro.jpg
data/img/WIN_20180601_15_37_04_Pro.jpg
data/img/WIN_20180601_15_37_05_Pro.jpg
data/img/WIN_20180601_15_37_06_Pro.jpg
data/img/WIN_20180601_15_37_07_Pro.jpg
data/img/WIN_20180601_15_37_08_Pro.jpg
data/img/WIN_20180601_15_37_09_Pro.jpg
data/img/WIN_20180601_15_37_10_Pro (2).jpg
data/img/WIN_20180601_15_37_10_Pro.jpg
data/img/WIN_20180601_15_37_11_Pro.jpg
data/img/WIN_20180601_15_37_12_Pro.jpg
data/img/WIN_20180601_15_37_13_Pro.jpg
data/img/WIN_20180601_15_37_14_Pro.jpg
data/img/WIN_20180601_15_37_15_Pro.jpg
data/img/WIN_20180601_15_37_16_Pro (2).jpg
data/img/WIN_20180601_15_37_16_Pro.jpg
data/img/WIN_20180601_15_37_18_Pro.jpg
data/img/WIN_20180601_15_37_19_Pro.jpg
data/img/WIN_20180601_15_37_20_Pro.jpg
data/img/WIN_20180601_15_37_22_Pro.jpg
data/img/WIN_20180601_15_37_23_Pro (2).jpg
data/img/WIN_20180601_15_37_23_Pro.jpg
data/img/WIN_20180601_15_37_24_Pro.jpg
data/img/WIN_20180601_15_37_25_Pro.jpg
data/img/WIN_20180601_15_37_26_Pro.jpg
data/img/WIN_20180601_15_37_27_Pro.jpg
data/img/WIN_20180601_15_37_29_Pro.jpg
data/img/WIN_20180601_15_37_30_Pro.jpg
data/img/WIN_20180601_15_37_31_Pro.jpg
data/img/WIN_20180601_15_37_32_Pro.jpg
data/img/WIN_20180601_15_37_33_Pro.jpg
data/img/WIN_20180601_15_37_34_Pro.jpg
data/img/WIN_20180601_15_37_35_Pro.jpg
data/img/WIN_20180601_15_37_36_Pro (2).jpg
data/img/WIN_20180601_15_37_36_Pro.jpg
data/img/WIN_20180601_15_37_37_Pro.jpg
data/img/WIN_20180601_15_37_38_Pro.jpg
data/img/WIN_20180601_15_37_39_Pro.jpg
data/img/WIN_20180601_15_37_40_Pro.jpg
data/img/WIN_20180601_15_37_42_Pro.jpg
data/img/WIN_20180601_15_38_18_Pro.jpg
data/img/WIN_20180601_15_38_20_Pro.jpg
data/img/WIN_20180601_15_38_26_Pro.jpg
data/img/WIN_20180601_15_38_27_Pro.jpg
data/img/WIN_20180601_15_38_28_Pro.jpg
data/img/WIN_20180601_15_38_29_Pro.jpg
data/img/WIN_20180601_15_38_31_Pro.jpg
data/img/WIN_20180601_15_38_32_Pro.jpg
data/img/WIN_20180601_15_38_33_Pro.jpg
data/img/WIN_20180601_15_38_34_Pro.jpg
data/img/WIN_20180601_15_38_36_Pro.jpg
data/img/WIN_20180601_15_38_37_Pro (2).jpg
data/img/WIN_20180601_15_38_37_Pro.jpg
data/img/WIN_20180601_15_38_39_Pro.jpg
data/img/WIN_20180601_15_38_40_Pro.jpg
data/img/WIN_20180601_15_38_43_Pro.jpg
data/img/WIN_20180601_15_38_45_Pro.jpg
data/img/WIN_20180601_15_38_46_Pro.jpg
data/img/WIN_20180601_15_38_47_Pro.jpg
data/img/WIN_20180601_15_38_48_Pro.jpg
data/img/WIN_20180601_15_38_49_Pro.jpg
data/img/WIN_20180601_15_38_50_Pro.jpg
data/img/WIN_20180601_15_38_51_Pro.jpg
data/img/WIN_20180601_15_38_52_Pro.jpg
data/img/WIN_20180601_15_38_53_Pro.jpg
data/img/WIN_20180601_15_38_54_Pro.jpg
data/img/WIN_20180601_15_38_55_Pro.jpg
data/img/WIN_20180601_15_38_56_Pro.jpg
data/img/WIN_20180601_15_38_57_Pro.jpg
data/img/WIN_20180601_15_38_58_Pro.jpg
data/img/WIN_20180601_15_38_59_Pro.jpg
data/img/WIN_20180601_15_39_01_Pro.jpg
data/img/WIN_20180601_15_39_02_Pro.jpg
data/img/WIN_20180601_15_39_03_Pro.jpg
data/img/WIN_20180601_15_39_04_Pro.jpg
data/img/WIN_20180601_15_39_05_Pro.jpg
data/img/WIN_20180601_15_39_06_Pro.jpg
data/img/WIN_20180601_15_39_07_Pro.jpg
data/img/WIN_20180601_15_39_08_Pro.jpg
data/img/WIN_20180601_15_39_09_Pro.jpg
data/img/WIN_20180601_15_39_10_Pro.jpg
data/img/WIN_20180601_15_39_11_Pro.jpg
data/img/WIN_20180601_15_39_12_Pro.jpg
data/img/WIN_20180601_15_39_13_Pro.jpg
data/img/WIN_20180601_15_39_14_Pro.jpg
data/img/WIN_20180601_15_39_16_Pro.jpg
data/img/WIN_20180601_15_39_17_Pro.jpg
data/img/WIN_20180601_15_39_19_Pro.jpg
data/img/WIN_20180601_15_39_20_Pro.jpg
data/img/WIN_20180601_15_39_21_Pro.jpg
data/img/WIN_20180601_15_39_22_Pro.jpg
data/img/WIN_20180601_15_39_23_Pro (2).jpg
data/img/WIN_20180601_15_39_23_Pro.jpg
data/img/WIN_20180601_15_39_24_Pro.jpg
data/img/WIN_20180601_15_39_25_Pro.jpg
data/img/WIN_20180601_15_39_26_Pro.jpg
data/img/WIN_20180601_15_39_27_Pro.jpg
data/img/WIN_20180601_15_39_28_Pro.jpg
data/img/WIN_20180601_15_39_29_Pro.jpg
data/img/WIN_20180601_15_39_30_Pro.jpg
data/img/WIN_20180601_15_39_31_Pro.jpg
data/img/WIN_20180601_15_39_33_Pro.jpg
data/img/WIN_20180601_15_39_34_Pro.jpg
data/img/WIN_20180601_15_39_35_Pro.jpg
data/img/WIN_20180601_15_39_36_Pro.jpg
data/img/WIN_20180601_15_39_37_Pro.jpg
data/img/WIN_20180601_15_39_39_Pro.jpg
data/img/WIN_20180601_15_39_41_Pro (2).jpg
data/img/WIN_20180601_15_39_41_Pro.jpg
data/img/WIN_20180601_15_39_43_Pro.jpg
data/img/WIN_20180601_15_39_44_Pro.jpg
data/img/WIN_20180601_15_39_45_Pro.jpg
data/img/WIN_20180601_15_39_46_Pro.jpg
data/img/WIN_20180601_15_39_48_Pro.jpg
data/img/WIN_20180601_15_39_50_Pro.jpg
data/img/WIN_20180601_15_39_51_Pro (2).jpg
data/img/WIN_20180601_15_39_51_Pro.jpg
data/img/WIN_20180601_15_39_52_Pro.jpg
data/img/WIN_20180601_15_39_53_Pro.jpg
data/img/WIN_20180601_15_39_54_Pro.jpg
data/img/WIN_20180601_15_39_55_Pro.jpg
data/img/WIN_20180601_15_39_56_Pro.jpg
data/img/WIN_20180601_15_40_00_Pro.jpg
data/img/WIN_20180601_15_40_01_Pro (2).jpg
data/img/WIN_20180601_15_40_01_Pro.jpg
data/img/WIN_20180601_15_40_03_Pro.jpg
data/img/WIN_20180601_15_40_04_Pro.jpg
data/img/WIN_20180601_15_40_05_Pro.jpg
data/img/WIN_20180601_15_40_06_Pro.jpg
data/img/WIN_20180601_15_40_07_Pro.jpg
data/img/WIN_20180601_15_40_09_Pro.jpg
data/img/WIN_20180601_15_40_11_Pro.jpg
data/img/WIN_20180601_15_40_12_Pro (2).jpg
data/img/WIN_20180601_15_40_12_Pro.jpg
data/img/WIN_20180601_15_40_13_Pro.jpg
data/img/WIN_20180601_15_40_28_Pro.jpg
data/img/WIN_20180601_15_44_08_Pro.jpg
data/img/WIN_20180601_15_44_57_Pro.jpg
data/img/WIN_20180601_15_45_34_Pro.jpg
data/img/WIN_20180601_15_45_35_Pro.jpg
data/img/WIN_20180601_15_45_37_Pro.jpg
